Car Name,Price,,,,,,,,,,,,,,
Honda City SMT 2009 Single Handed,"NRs 1,750,000.00"
Hyundai i20 Elite Magna 2016 Single Handed,"NRs 2,400,000.00"
Single Owner New Ford Fiesta 2011 Style Low Run Excellent,"NRs 1,750,000.00"
Single Owner Daihatsu Sirion Full Service History AirBags Full Option,"NRs 1,050,000.00"
Excellent condition Volkswagen Polo 1.2 Comforline Ex Dr Owned,"NRs 1,950,000.00"
Single Owner Volkswagen 2013 Comfort-line in Brand new condition Low Run 23...,"NRs 1,975,000.00"
Single Owner Toyota Etios V Grade In Brand new condition,"NRs 2,575,000.00"
Single Owner Honda CRV fully Loaded with Sunroof,"NRs 4,650,000.00"
Single Owner Fiat Avventure 2015 Pearl White Suv,"NRs 2,075,000.00"
Single Owner Baleno Delta 2016 Fully Modified,"NRs 2,475,000.00"
"Hyundai Creta Fully Loaded Automatic 2017 LowRun 11000k Only, Fully Loaded ...","NRs 4,950,000.00"
"Ford EcoSport 2013 Titanium ‘O’  Turbo Diesel, Fully Loaded 6 AirBags  Exce...","NRs 2,850,000.00"
"Excellent Condition Hyundai Santro 2009, Immaculate condition Low Run","NRs 1,150,000.00"
Maruti Suzuki Swift Zxi 2013 Single owner Excellent quality contain,"NRs 2,050,000.00"
"Ford EcoSport 2014 Auto/Manual Transmission, 6 AirBags  Excellent condition...","NRs 2,950,000.00"
Sporty Hatch Back Hyundai Eon 2013 Era Plus,"NRs 1,175,000.00"
Single Owner Volkswagen Polo 2013 Low Low Run Excellent condition,"NRs 1,750,000.00"
Single Owner Honda City Smt Full Option 2010 Immaculate condition,"NRs 1,950,000.00"
Single Owner Hyundai Creta Sx+ Fully Loaded 2016,"NRs 4,250,000.00"
Excellent condition Zotye with ABs 1.3 Special Edition,"NRs 1,050,000.00"
Hyundai i20 Active “S” in Excellent condition 2016,"NRs 3,150,000.00"
"Single Owner Hyundai I10 Magna 2012, Low Run (Full Service History)","NRs 1,600,000.00"
Single Owner Kia Soul,"NRs 2,250,000.00"
Single Owner Ford Figo 2012 Titanium Excellent.condition New Model,"NRs 1,400,000.00"
Single Owner Toyota Corolla Lx (Excellent condition) Low Run,"NRs 2,350,000.00"
Single Owner Hyundai Santro 2005 Full Option Excellent condition,"NRs 925,000.00"
Single Owner Ford Figo 2012 ZXI in Excellent condition,"NRs 1,300,000.00"
Single Owner Hyundai i20 Active (S) Full Option 2016 Like New,"NRs 3,100,000.00"
Single Owner Hyundai Tucson Low Run Excellent condition,"NRs 2,200,000.00"
Single Owner Suzuki Swift 2013 Low Run Like New,"NRs 1,975,000.00"
"Single Owner Hyundai i10 Grand Magna 2015, Low Run","NRs 2,050,000.00"
"Hyundai Creta 1.6 Sx (+) Diesel Turbo Fully Loaded AirBags, Navi","NRs 4,700,000.00"
Single Owner New Ford Fiesta Style Full Option 2011 Excellent condition,"NRs 1,775,000.00"
Hyundai Grand i10 Magna 1.2cc 2014 Excellent condition,"NRs 1,950,000.00"
Hyundai Grand i10 Sportz 1.2cc 2014 With Keyless Push Start,"NRs 2,050,000.00"
Hyundai i20 Magna 2009 Turbo Diesel 1.4cc Excellent condition,"NRs 1,425,000.00"
"Single Handed Hyundai iGen i20 Asta Special Edition (Auto Headlight, Auto W...","NRs 2,250,000.00"
Renault Duster 2017 RXZ+ (Diesel) Single OwnerUnder company warranty,"NRs 4,175,000.00"
Single Owner Hyundai Eon 2012 in Original paint Excellent condition,"NRs 1,225,000.00"
Single Owner Hyundai Creta E Plus Low Run 14k Only,"NRs 3,800,000.00"
Single Owner Hyundai i10 Era 2009 Excellent condition,"NRs 1,250,000.00"
One Owner Volkswagen Polo Trend Line Excellent condition,"NRs 1,675,000.00"
Excellent condition Hyundai i10 Magna 2009 In Kathmandu cars,"NRs 1,350,000.00"
One owner Hyundai Getz Full Option in Excellent condition Cars Nepal,"NRs 975,000.00"
Excellent condition Hyundai i20 Magna 2009,"NRs 1,450,000.00"
Single Owner Toyota Etios VX In Brand new condition,"NRs 1,925,000.00"
Excellent condition Ford Figo in Showroom condition,"NRs 1,200,000.00"
Excellent condition Hyundai i10 Sportz 2011 Silver,"NRs 1,575,000.00"
Excellent condition Ford Figo Titanium with Sterring controls,"NRs 1,350,000.00"
Single Hand Hyundai i10 2012 Excellent condition Low Run,"NRs 1,625,000.00"
Ford Figo Titanium 2014 Excellent condition Low Run Fully Loaded,"NRs 1,550,000.00"
Single Owner Hyundai Getz Full Option in Excellent condition 2008,"NRs 999,000.00"
Single Owner Toyota Hilux 4WD in Excellent condition,"NRs 3,500,000.00"
Excellent condition Honda City 2016 Fully Loaded VXMT Sunroof,"NRs 3,825,000.00"
Excellent condition Hyundai Santro 2007 Embossed Number plate,"NRs 1,075,000.00"
Excellent conditio Hyundai i10 Magna 1.2 Kappa engine Single Owner,"NRs 1,350,000.00"
Hyundai i20 Asta Single Owner Excellent condition,"NRs 1,565,000.00"
Excellent Condition Suzuki Swift Quality Modification Zxi Pearl White,"NRs 2,175,000.00"
Excellent Condition Kia Picanto 2008 With Alloys wheels,"NRs 1,025,000.00"
Excellent Condition Zotye with ABs 1.6 Special Edition,"NRs 1,025,000.00"
Brand New Condition Hyundai Creta SX+ 2017 Run 5k Only,"NRs 4,675,000.00"
Excellent condition Honda City Smt 2009 with custom seats,"NRs 1,850,000.00"
Single Owner Hyundai Grand i10 Asta O in Excellent condition,"NRs 2,225,000.00"
Excellent condition Maruti Suzuki Swift Vxi Sporty Hatchback,"NRs 1,199,000.00"
Excellent condition Suzuki Swift 2012 One Owner Alloys,"NRs 1,825,000.00"
Single Owner and In immaculate condition Hyundai i10 2012 Era,"NRs 1,499,000.00"
Excellent condition Kia Sportage New Shape,"NRs 3,399,000.00"
Single Owner Ford EcoSport 2016 in Excellent condition,"NRs 2,575,000.00"
Single Owner Ford Figo 2011 Titanium Excellent Condition,"NRs 1,350,000.00"
Maruti Suzuki Swift Dzire 2013(Excellent Condition)New Shape,"NRs 1,850,000.00"
Hyundai Getz Single Handed in Excellent condition 2009,"NRs 1,200,000.00"
Immaculate Condition Maruti Suzuki Baleno Single Hand Full Option,"NRs 2,550,000.00"
Single Hand Excellent Condition Hyundai i10 Magna 1.2cc,"NRs 1,625,000.00"
Excellent Condition Hyundai Tucson 2013 Low running 32kkm Only,"NRs 4,650,000.00"
Single Hand Excellent Condition Ford Ecosport 2014 with running of 22k km O...,"NRs 2,550,000.00"
Single Hand Excellent Condition Hyundai Santro 2010 immaculate condition,"NRs 1,225,000.00"
Single Hand Excellent Condition Renault Kwid 2017,"NRs 1,799,000.00"
Maruti Suzuki Wagon R 2013 Silver Alloys Excellent Condition,"NRs 1,375,000.00"
Single Hand Excellent Condition Asta Hyundai 2010 in Super clean condition,"NRs 1,525,000.00"
Excellent condition Maruti Suzuki Alto 2013 Lxi,"NRs 1,200,000.00"
Immaculate Condition Maruti Suzuki Baleno Single Hand,"NRs 2,175,000.00"
Excellent condition Maruti Suzuki Swift 2010 New Tyres,"NRs 1,525,000.00"
Excellent condition Toyota Rav4 Full Option 2010 Super Clean condition,"NRs 4,800,000.00"
Excellent condition Hyundai Eon 2012 Super clean,"NRs 1,200,000.00"
"Single Hand Excellent Condition Toyota Corolla Lx, Alloys, Customised Seats...","NRs 2,525,000.00"
Single Hand Hyundai Eon Era Plus 2012,"NRs 1,200,000.00"
Ford Classic TDCI Turbo Diesel  2015 Full Option Single Handed,"NRs 1,725,000.00"
Single Hand Kia Picanto 20011 Excellent condition Low run,"NRs 1,175,000.00"
Volkswagen VW Polo  Polo G TopTrim High Line 1.6cc 2014 Excellent condition...,"NRs 2,350,000.00"
Single Owner Ford figo Zxi 2012 in super excellent condition,"NRs 1,325,000.00"
Single Owner Honda Jazz SMT full option 2010 Kathmandu Nepal,"NRs 1,600,000.00"
Single Hand TATA Safari Storme In super excellent condition,"NRs 3,000,000.00"
Single Hand Excellent Condition Maruti Suzuki Swift ZXI Pearl White,"NRs 2,099,000.00"
Single Owner Hyundai Eon Sportz AirBag 22k km Run,"NRs 1,300,000.00"
Single Hand Ford Figo 2013 Titanium Excellent condition,"NRs 1,425,000.00"
Single Hand Excellent Condition Maruti Swift VXI 2013,"NRs 1,899,999.00"
Single Hand Excellent Condition Hyundai Grand I10 Magna 2015,"NRs 2,075,000.00"
Super Excellent Hyundai i20 ASTA in Super New condition 2010 Blue Light,"NRs 1,650,000.00"
Hyundai Creta (E Plus) LowRun 12000km Excellent condition Single owner,"NRs 3,775,000.00"
Excellent condition Single Hand Hyundai Accent 2009 Full Option,"NRs 1,525,000.00"
Excellent condition Hyundai i20 Magna Alloys and Climat ctrl,"NRs 1,525,000.00"
Single Owner Hyundai Tucson 2011 58 KM Excellent Condition),"NRs 3,799,000.00"
Daihatsu Sirion 2009 1.3 fully Loaded Excellent Condition,"NRs 1,299,999.00"
Excellent condition Maruti Suzuki Wagon R VXI,"NRs 1,325,000.00"
Mahindra Reva Electric Car 2011 Excellent condition NO MORE FUEL,"NRs 975,000.00"
Single Owner Hyundai i20 Magna Super excellent condition 2009,"NRs 1,490,000.00"
Single Handed Excellent condition Hyundai Eon 2014 Only 17000Running,"NRs 1,325,000.00"
Honda City ZX 10th Anniversary edition Full Option Automatic Transmission A...,"NRs 1,550,000.00"
Volkswagen Vw Polo Toptrim High Line 1.6cc 2013 Excellent condition,"NRs 2,150,000.00"
Excellent condition KIA Picanto 2007 FULLY LOADED,"NRs 875,000.00"
Single Handed Excellent condition Grand i10 Magna 2014,"NRs 1,975,000.00"
Excellent condition KIA SPORTAGE 2007 FULLY LOADED 2007,"NRs 2,525,000.00"
CHEVROLET Aveo Lt Fully Loaded Leather Finished 2009 AirBags ABs,"NRs 1,175,000.00"
Single Handed Excellent condition Grand i10 Asta 7000k km only 2015,"NRs 23,000,000.00"
"Excellent condition Maruti Suzuki AStar ZXI (AirBags,ABs)","NRs 1,175,000.00"
Hyundai iGen i20 Asta Top Fully Loaded Model DRL edition,"NRs 2,199,000.00"
Single Hand super Excellent condition Hyundai Creta 17k Km Only White,"NRs 4,175,000.00"
Single Hand Excellent condition Maruti Swift Zxi 2015 Push Start model,"NRs 2,275,000.00"
"Excellent condition Chevrolet Aveo UVA Lt Fully Loaded AirBag, ABs 2009","NRs 975,000.00"
Excellent condition Volkswagen Highline Polo 1.2cc,"NRs 1,675,000.00"
Single Owner Maruti Suzuki Swift Dzire 2010 Excellent condition,"NRs 1,550,000.00"
Single Owner Volkswagen VW Polo TopTrim High Line 1.6cc 2013 Excellent cond...,"NRs 2,150,000.00"
Renault Duster Rxz + Diesel 2016 with only 8000 KM,"NRs 4,100,000.00"
Single Owner Suzuki Grand Vitara 4WD Original Paint Excellent condition,"NRs 1,600,000.00"
Hyundai Santro Xing XO 2006 Single Handed,"NRs 1,050,000.00"
Hyundai Santro GLS 2009 Single Handed,"NRs 1,125,000.00"
Nissan Navara LE 2010 4×4 for SALE,"NRs 3,200,000.00"
Maruti Suzuki Wagon R VXI 2013 Excellent Condition Single Handed,"NRs 1,475,000.00"
Ford Classic 2014 Full Option Single Handed,"NRs 1,525,000.00"
Honda Brio SMT 2014 Full Option Single Handed,"NRs 1,625,000.00"
Excellent condition Kia Picanto 2010 Full Option,"NRs 1,199,000.00"
Single Hand Ford Ecosport 2014 TDCI Turbo Diesel Injection Original paint,"NRs 2,899,999.00"
Excellent Condition Ford Figo Lxi with Original Alloy wheels and Ford Audio...,"NRs 1,275,000.00"
Single Owner Maruti Suzuki Van 2012 Excellent condition Low Run,"NRs 900,000.00"
HYUNDAI i10 Dlite 2009,"NRs 1,050,000.00"
"Single Owner Hyundai Grand Magna AirBag edition, Low Run","NRs 2,099,999.00"
Excellent Condition Volkswagen Highline Polo G 2014 Carbon Steel,"NRs 2,325,000.00"
Single Owner Hyundai Grand i10 Asta 2014 16k Run Excellent condition,"NRs 2,225,000.00"
Nissan X-Trail 4WD Excellent condition Sunroof Fully Loaded,"NRs 2,550,000.00"
HYUNDAI SONATA Gls Double SunRoof FULL Loaded Edition,"NRs 3,700,000.00"
Single Owner Ford Figo Zxi 2013 in super excellent condition,"NRs 1,450,000.00"
Single Hand Maruti Suzuki Wagonr VXI,"NRs 699,000.00"
Single Handed Hyundai Getz 2007 Excellent condition,"NRs 975,000.00"
Single Owner Volkswagen VW Polo TopTrim High Line 1.6cc 2013 Excellent cond...,"NRs 2,175,000.00"
Excellent Condition Zen Estilo 2008 Single Handed,"NRs 900,000.00"
Excellent Condition New Ford Figo 2014 Exi (11K Running Only),"NRs 1,500,000.00"
Excellent Condition Hyundai Santro Gls 2009,"NRs 1,125,000.00"
Honda City ZX 10th Anniversary Edition Full Option Excellent condition,"NRs 1,475,000.00"
Single Owner Toyota Land cruiser Prado TX 2008 in Excellent condition,"NRs 7,600,000.00"
Single Owner Hyundai Grand Xcent S 2014 Excellent condition,"NRs 2,200,000.00"
Hyundai Grand i10 Asta ‘O’ 2014 Excellent condition,"NRs 2,200,000.00"
Single Handed Renault Kwid Automatic Transmission 2017 Only 5000km,"NRs 1,950,000.00"
Hyundai Getz Single Handed in Excellent condition,"NRs 950,000.00"
Single Handed Mahindra Scorpio 2013 A/C Power sterring Excellent condition,"NRs 2,350,000.00"
Single Handed Maruti Suzuki Alto A/C 2012 (Excellent Condition),"NRs 950,000.00"
Single Hand Terios 4WD Original Paint Excellent condition 2004,"NRs 1,799,999.00"
Single Hand Hyundai Grand i10 Magna 16000km Only,"NRs 1,975,000.00"
Single Hand Volkswagen 1.6 Polo HighLine (1200km Only),"NRs 1,899,000.00"
Single Hand Volkswagen 1.2 Polo 2011 ComfortLine (Excellent Condition),"NRs 1,675,000.00"
Excellent condition Suzuki Alto 2008,"NRs 825,000.00"
Ford Figo Exi/Zxi 2011 in super excellent condition,"NRs 1,175,000.00"
Single Hand Ford EcoSport 2013 6 Airbags Excellent Condition,"NRs 2,700,000.00"
Excellent condition Hyundai i10 1.2 2009,"NRs 1,290,000.00"
Daihatsu Sirion Excellent Condition,"NRs 950,000.00"
Maruti Suzuki Wagon R VXI Excellent condition,"NRs 1,000,000.00"
Single Owner Hyundai Sportz o 2013 25kRun,"NRs 1,699,000.00"
Tata Safari 2013 LX Full Option (Excellent condition),"NRs 1,975,000.00"
Hyundai Eon 2012 Era Plus Single Owner Excellent condition,"NRs 1,250,000.00"
Excellent Condition Hyundai Santro Gls 2009,"NRs 1,150,000.00"
Single Owner Maruti Suzuki Alto 2007 Excellent condition,"NRs 775,000.00"
New Shape Hyundai Grand i10 Sportz 1800km,"NRs 2,475,000.00"
Super Excellent Condition Chevrolet Spark 2008,"NRs 725,000.00"
Single Hand Hyundai Grand i10 Asta ‘o’ 2014 Excellent,"NRs 2,225,000.00"
Single Hand Suzuki Grand Vitara 4×4 Drive 2007,"NRs 2,450,000.00"
Excellent Condition Hyundai Santro Gls 2009,"NRs 1,125,000.00"
Ford figo Zxi 2010 in super excellent condition,"NRs 1,175,000.00"
Hyundai Creta (S) LowRun Excellent condition Single owner,"NRs 3,650,000.00"
Excellent condition Maruti Suzuki Zen Estilo VXi,"NRs 925,000.00"
Single Owner Excellent condition Ford Classic 2013,"NRs 1,475,000.00"
Volkswagen Cross PoloG 1.6  High Line Single Owner,"NRs 2,525,000.00"
Single Owner Opel Corsa Excellent condition 2005 (Negotiable),"NRs 625,000.00"
Excellent condition Hyundai i10 1.2 2010,"NRs 147,500.00"
Single Owner Hyundai i10 2011 Sportz Excellent condition,"NRs 1,600,000.00"
Excellent condition Maruti Suzuki Dzire VXI 2010,"NRs 1,500,000.00"
Single Hand Volkswagen 1.6 Polo 2013 HighLine (Excellent Condition),"NRs 2,225,000.00"
Single Hand Hyundai Tucson 2009 Automatic Head Lamp  Super Excellent condit...,"NRs 2,900,000.00"
Daihatsu Terios(Toyota) 4wd Excellent condition 2010,"NRs 3,350,000.00"
Single Hand Kia Picanto 20011 Excellent condition Low run,"NRs 1,200,000.00"
Honda City IVtec Smt in Excellent condition Single hand,"NRs 1,850,000.00"
Maruti Suzuki Alto k10 Low Km Run Excellent condition,"NRs 1,100,000.00"
Hyundai i20 Asta 2010 Excellent condition,"NRs 1,625,000.00"
Honda City ZX 10th Anniversary edition Full Option,"NRs 1,475,000.00"
Single Hand Hyundai i10 2010 1200cc Magna Excellent condition,"NRs 1,475,000.00"
Excellent Condition Daihatsu Sirion Fully Loaded 1300cc 2008,"NRs 1,075,000.00"
"Excellent condition Maruti Suzuki AStar ZXI (AirBags,ABs)","NRs 1,200,000.00"
Excellent condition Suzuki Vitara 4WD,"NRs 1,425,000.00"
Mahindra Scorpio S4+ 4WD 2016 Buy in Kathmandu Nepal2014 Buy in Kathmandu N...,"NRs 4,100,000.00"
Single Owner Ford Figo 2014 Titanium Excellent Condition,"NRs 1,575,000.00"
Eeco 7 Seater Van 2012 in Brand New Condition,"NRs 1,300,000.00"
Single Owner Ford Figo 2015 Titanium,"NRs 1,625,000.00"
Hyundai Grand i10 2014 Magna only 1400km Single hand,"NRs 1,950,000.00"
Ford Ecosport 2014 (Titanium) 18k Rum Excellent Condition,"NRs 2,850,000.00"
Volkswagen Polo 1.2cc 2015 Trend Line Single owner,"NRs 187,500.00"
Single Hand Kia Picanto 2008 Excellent condition,"NRs 950,000.00"
Excellent condition Honda Brio 2012 Silver,"NRs 1,525,000.00"
Single Hand Hyundai Eon Era Plus 2014,"NRs 1,325,000.00"
Single Handed Maruti Suzuki Swift Dzire 2013(Excellent Condition),"NRs 1,900,000.00"
Suzuki Swift 2014 ZXI (Excellent Condition),"NRs 2,250,000.00"
Single Owner Hyundai i20 Asta (Super Excellent Condition),"NRs 1,625,000.00"
Single Owner Hyundai Verna in EXCELLENT Condition,"NRs 2,350,000.00"
Volkswagen Polo 1.6cc 2015 High Line Single owner,"NRs 2,375,000.00"
Single Hand DaiHatsu Terios 2010 in Excellent Condition,"NRs 3,350,000.00"
Car Name,Price,,,,,,,,,,,,,,
Hyundai Grand I10 Magna 2014 Buy in Kathmandu Nepal,"NRs 19,50,000"
Hyundai Getz 2009 (Only 16k Km Original) Single hand,"NRs 13,00,000"
Hyundai i10 Automatic transmission Excellent condition,"NRs 15,50,000"
Hyundai Grand i10 Magna 2014 Buy in Kathmandu Nepal,"NRs 19,25,000"
Hyundai Santro GLS 2010 Buy in Kathmandu Nepal,"NRs 12,25,000"
Hyundai i10 Magna 1.2 2010 Buy in Kathmandu Nepal,"NRs 14,75,000"
Hyundai i20 Sportz 2010 Buy in Kathmandu Nepal,"NRs 16,00,000"
Hyundai Creta 1.6 SX+ Petrol 2015 Buy in Kathmandu Nepal,"NRs 42,00,000"
Hyundai i20 Asta 2009 Buy in Kathmandu Nepal,"NRs 16,00,000"
Tata Sumo Gold Ex 2015 Buy in Kathmandu Nepal,"NRs 21,50,000"
Nissan DATSUN GO 2014 Buy in Kathmandu Nepal,"NRs 13,95,000"
Hyundai Grand i10 Magna 2015 Buy in Kathmandu Nepal,"NRs 19,25,000"
Ford EcoSport 1.5 Titanium Petrol 2015 Buy in Kathmandu Nepal,"NRs 30,00,000"
Single Hand Suzuki Maruti Swift 2012 Silver excellent condition,"NRs 18,00,000"
"Hyundai i20 Asta Auto Transmission, Single Hand Excellent condition","NRs 17,50,000"
Hyundai i10 Magna 1.2 2010 Buy in Kathmandu Nepal,"NRs 14,25,000"
Hyundai I20 Active Kappa S(petrol) 2015 Buy in Kathmandu Nepal,"NRs 30,00,000"
Ford EcoSport 1.5 Trend Petrol 2016 Buy in Kathmandu Nepal,"NRs 28,50,000"
Honda City SMT 2009 Buy in Kathmandu Nepal,"NRs 19,50,000"
Hyundai Santro GLS 2008 Buy in Kathmandu Nepal,"NRs 11,25,000"
Hyundai Santro 2003 Buy in Kathmandu Nepal,"NRs 6,75,000"
Hyundai i20 Magna 2010 Buy in Kathmandu Nepal,"NRs 15,50,000"
Hyundai i10 Magna 1.2 2013 Buy in Kathmandu Nepal,"NRs 17,25,000"
Maruti Suzuki Wagon R VXI 2011 Buy in Kathmandu Nepal,"NRs 13,00,000"
Hyundai Eon Era+  2013  Buy in Kathmandu Nepal,"NRs 13,25,000"
Mahindra Scorpio SLX Turbo 2.6 4WD 2010 Buy in Kathmandu Nepal,"NRs 29,00,000"
Honda City 1.5 SMT 2010 Buy in Kathmandu Nepal,"NRs 21,00,000"
Daihatsu Sirion 1.0 2007 Buy in Kathmandu Nepal,"NRs 9,75,000"
Hyundai i20 Magna 2009 Buy in Kathmandu Nepal,"NRs 15,25,000"
Maruti Suzuki Swift Dzire VXI 2013 Buy in Kathmandu Nepal,"NRs 19,75,000"
Hyundai i20 Sportz 2010 Buy in Kathmandu Nepal,"NRs 16,00,000"
Hyundai i10 Magna 1.2 2010 Buy in Kathmandu Nepal,"NRs 14,75,000"
Hyundai Eon Era+  2013  Buy in Kathmandu Nepal,"NRs 13,25,000"
Hyundai iGen i20 Asta 2013 Buy in Kathmandu Nepal,"NRs 24,00,000"
Zyote 2008 Buy in Kathmandu Nepal,"NRs 9,75,000"
Honda City 1.5 VX MT  2016 Buy in Kathmandu Nepal,"NRs 42,00,000"
Ford Figo Titanium 2013 buy in Kathmandu Nepal,"NRs 16,00,000"
Suzuki Swift 2007 VXI Buy in Kathmandu Nepal,"NRs 12,25,000"
Toyota Echo 2000 Buy in Kathmandu Nepal,"NRs 9,00,000"
Kia Sportage Auto Gear 2001 Buy in Kathmandu Nepal,"NRs 900,000.00"
Hyundai Grand i10 Asta 2014 Buy in Kathmandu Nepal,"NRs 24,00,000"
Daihatsu Terios 4WD 2002 Buy in Kathmandu Nepal,"NRs 15,75,000"
Hyundai i10 Magna 1.2 2010 Buy in Kathmandu Nepal,"NRs 1,475,000.00"
Ford Figo EXI 2012 buy in Kathmandu Nepa,"NRs 13,50,000"
Ford EcoSport 1.5 Titanium Petrol 2014 Buy in Kathmandu Nepal,"NRs 29,50,000"
Opel Corsa 1.4 2004 Buy in Kathmandu Nepal,"NRs 5,25,000"
Maruti Suzuki Van 2000 Buy in Kathmandu Nepal,"NRs 4,35,000"
Hyundai Santro GLS 2009 Buy in Kathmandu Nepal,"NRs 11,50,000"
Tata Grande GX 2009 Buy in Kathmandu Nepal,"NRs 14,25,000"
Maruti Suzuki Swift VXi 2009 Buy in Kathmandu Nepal,"NRs 1,500,000.00"
Hyundai Santro Xing XO 2006 Buy in Kathmandu Nepal,"NRs 10,25,000"
Kia Picanto Ex 2008 Buy in Kathmandu Nepal,"NRs 10,75,000"
Hyundai Santro GL Plus 2013 Buy in Kathmandu Nepal,"NRs 14,50,000"
"Mazda 3 Fully Loaded, V GRADE(Auto HeadLight, Auto Wipers)","NRs 15,50,000"
"Maruti Suzuki Alto Vxi in excellent condition, Full Option","NRs 5,15,000"
Tata Nano CX A/C 2012,"NRs 4,35,000"
Hyundai Eon Magna + 2015 Buy in Kathmandu Nepal,"NRs 15,25,000"
Hyundai Grand i10 Asta *Full option* 9000k km Only.,"NRs 23,99,000"
Honda Brio 1.2 Ultimate city car Buy in Kathmandu,"NRs 15,75,000"
Hyundai i10 Magna 1.2 Silver Excellent ConditionBuy in Kathmandu Nepal,"NRs 15,25,000"
Hyundai Xcent Kappa S 2014 Buy in Kathmandu Nepal,"NRs 22,00,000"
Hyundai Eon Era+  2012  Buy in Kathmandu Nepal,"NRs 12,50,000"
Hyundai I20 Active 2015 Buy in Kathmandu Nepal,"NRs 31,50,000"
Hyundai i10 Grand magna 2014 buy in Kathmandu Nepal,"NRs 19,75,000"
Hyundai i20 Magna 2009 condition Buy in Kathmandu Nepal,"NRs 15,00,000"
Hyundai Santro GL 2010 Buy in Kathmandu Nepal,"NRs 12,50,000"
HYUNDAI I10 Magna 2010 Excellent condition,"NRs 14,25,000"
Hyundai Grand I10 Magna 2015 (13K Kms OnlY)  Buy in Kathmandu Nepal,"NRs 21,50,000"
Excellent Condition Bolero SLX Full Option 2009,"NRs 15,50,000"
Hyundai i20 Magna 2009 condition Buy in Kathmandu Nepal,"NRs 14,90,000"
Single Hand Maruti Suzuki A star Excellent Condition,"NRs 11,50,000"
Wagon R 2014 Excellent Condition,"NRs 15,90,000"
Hyundai Grand i10 Magna 2014 Buy in Kathmandu Nepal,"NRs 19,75,000"
Ford Ecosport 1.5 Trend 2014 Diesel Buy in Kathmandu Nepal,"NRs 29,50,000"
Volkswagen Polo 1.2 Trendline 2013 Buy in Kathmandu Nepal,"NRs 16,50,000"
Hyundai Grand i10 Asta 2014 Buy in Kathmandu Nepal,"NRs 22,75,000"
Volkswagen Cross Polo 1.6 Petrol 2015 Buy in Kathmandu Nepal,"NRs 26,50,000"
Maruti Suzuki Wagon R VXI 2012 Buy in Kathmandu NepalBuy in Kathmandu Nepal...,"NRs 14,75,000"
Honda City 1.5 VXMT Buy in Kathmandu Nepal,"NRs 29,00,000"
Hyundai Getz 2007 Buy in Kathmandu Nepal,"NRs 9,75,000"
Hyundai Grand i10 Sportz 2015 Buy in Kathmandu Nepal,"NRs 23,25,000"
Single Hand Hyundai Santro 2012 Buy in Kathmandu Nepal,"NRs 14,25,000"
Hyundai Eon Magna + 2015 Buy in Kathmandu Nepal,"NRs 15,25,000"
Hyundai I20 Magna 2009 condition Buy in Kathmandu Nepal,"NRs 15,25,000"
Ford Figo Titanium 2011 Buy in Kathmandu Nepal,"NRs 13,50,000"
Hyundai eon Era+ 2013 Buy in Kathmandu Nepal,"NRs 13,00,000"
Hyundai i20 Sportz 2010 Buy in Kathmandu Nepal,"NRs 15,75,000"
Suzuki Swift VXI 2010 Buy in Kathmandu Nepal,"NRs 15,75,000"
Hyundai Grand i10 Magna 2014 Buy in Kathmandu Nepal,"NRs 20,00,000"
Hyundai i20 Asta 2009 Buy in Kathmandu Nepal,"NRs 15,75,000"
Honda City GXI 2004 Buy in Kathmandu Nepal,"NRs 10,00,000"
Hyundai i10 Magna 1.2 2013 Buy in Kathmandu Nepal,"NRs 17,25,000"
Kia Rio 2002 Buy in Kathmandu Nepal,"NRs 5,25,000"
Ford Figo EXI 2012 Buy in Kathmandu Nepal,"NRs 13,25,000"
Ford Classic Fiesta Sxi Diesel Dual Air Bags ABS 2011,"NRs 16,00,000"
Maruti Suzuki Wagon r VXI 2013 Buy in Kathmandu Nepal,"NRs 15,00,000"
Maruti Suzuki Astar ZXi 2010 Buy in Kathmandu Nepal,"NRs 12,50,000"
Volkswagen Polo 1.2 Trendline 2011 Buy in Kathmandu Nepal,"NRs 16,00000"
Hyundai Santro Atos 2007 Buy in Kathmandu Nepal,"NRs 8,50,000"
Ford Figo 2011 Zxi Buy in Kathmandu Nepal,"NRs 12,50,000"
Land Rover 2007 Freelander 2,"NRs 75,00000"
Volkswagen Polo 1.6 Highline 2013 Buy in in Kathmandu Nepal,"NRs 23,00000"
Hyundai I20 Elite 2015 1.2 Asta Buy in Kathmandu Nepal,"NRs 28,00000"
Hyundai Eon Era+ 2013 Buy in Kathmandu Nepal,"NRs 13,50,000"
Maruti Suzuki Alto Lx 800 2008 Buy in Kathmandu Nepal,"NRs 8,50,000"
Hyundai Tucson GL 2008 Buy in Kathmandu Nepal,"NRs 28,50,000"
Volkswagen Polo 1.2 Highline 2013 Buy in in Kathmandu Nepal,"NRs 21,00000"
Zotye 2010 Buy in Kathmandu Nepal,"NRs 12,50,000"
Hyundai I10 Magna 1.1 2011 Buy in Kathmandu Nepal,"NRs 15,25,000"
Geely Sedan 2007 buy in Kathmandu Nepal,"NRs 7,50,000"
Honda Jazz 2010 Buy in Kathmandu Nepal,"NRs 15,75,000"
Toyota Corolla LX 2006 Buy in Kathmandu Nepal,"NRs 22,50,000"
Hyundai I20 Magna 2010 Buy in Kathmandu Nepal,"NRs 15,50,000"
Maruti Suzuki WagonR VXI 2009 Buy in Kathmandu Nepal,"NRs 10,50,000"
Kia Rio 2007 Buy in Kathmandu Nepal,"NRs 10,75,000"
Spark LT 2009 Buy in Kathmandu Nepal,"NRs 7,75,000"
Ford Figo 2010 Buy in Kathmandu Nepal,"NRs 12,00000"
Hyundai Eon Era+ 2012 Buy in Kathmandu NepaI,"NRs 12,75,000"
Honda City SMT 2009 Buy in Kathmandu Nepal,"NRs 21,00,000"
Maruti Suzuki Vitara Brezza ZDI 2016 Buy in Kathmandu Nepal,"NRs 38,00,000"
Volkswagen Vento 1.6 Highline 2013 Buy in Kathmandu Nepal,"NRs 26,50,000"
Hyundai i10 Magna 1.1 2011 Single Handed Buy in Kathmandu Nepal,"NRs 15,25,000"
Hyundai Santro 2002 Buy in Kathmandu Nepal,"NRs 6,50,000"
Hyundai Grand i10 Magna 2014 Buy in Kathmandu Nepal,"NRs 20,50,000"
Hyundai i10 Magna 2009 Buy in Kathmandu Nepal,"NRs 13,50,000"
Mahindra Scorpio S4+ 4WD  2016 Buy in Kathmandu Nepal2014 Buy in Kathmandu ...,"NRs 45,50,000"
Hyundai Santro GLS 2009 December  buy in Kathmandu Nepal,"NRs 12,00,000"
Hyundai i10 Magna 2008 Buy in Kathmandu Nepal,"NRs 13,00000"
Hyundai i20 Sportz 2010 Buy in Kathmandu Nepal,"NRs 16,25,000"
Hyundai I20 Elite 1.2 Asta Buy in Kathmandu Nepal,"NRs 28,00000"
Daihatsu Sirion 1.0 2009 Buy in Kathmandu Nepal,"NRs 11,00000"
Hyundai Santro 2006 Buy in Kathmandu Nepal,"NRs 10,00000"
Hyundai Eon Magna + 2014 Buy in Kathmandu Nepal,"NRs 14,75,000"
Hyundai Santro GL 2011 Buy in Kathmandu Nepal,"NRs 12,50,000"
Hyundai Eon Era+ 2012 Buy in Kathmandu NepaI,"NRs 13,50,000"
Honda City 1.5 MT 2012 Buy in Kathmandu Nepal,"NRs 24,00000"
Hyundai i10 Magna 2009 Buy in Kathmandu Nepal,"NRs 13,50,000"
Hyundai Creta 1.6 SX Plus 2015 Buy in Kathmandu Nepal,"NRs 45,00000"
Honda City 1.5 VMT 2014 Buy in Kathmandu Nepal,"NRs 30,50,000"
Volkswagen Vento 1.6 Trendline 2013 Buy in Kathmandu,"NRs 23,00000"
Hyundai i20 Asta 2010 Buy in Kathmandu Nepal,"NRs 17,25,000"
Maruti Suzuki WagonR VXI 2007 Buy in Kathmandu Nepal,"NRs 8,25,000"
Hyundai I20 Sportz 2013 Next Gen Buy in Kathmandu Nepal,"NRs 21,50,000"
Ford Figo 2012 EXI Buy in Kathmandu Nepal,"NRs 13,25,000"
Hyundai Santro 2009 buy in Kathmandu Nepal,"NRs 11,50,000"
Hyundai I20 Active 2016 Buy in Kathmandu Nepal,"NRs 32,00000"
Hyundai Getz 2008 Buy in Kathmandu Nepal,"NRs 12,00000"
Hyundai Grand i10 Asta 2013 Buy in Kathmandu Nepal,"NRs 22,00000"
Ford Ecosport 1.5 Trend 2013 Diesel Buy in Kathmandu Nepal,"NRs 28,50,000"
Volkswagen Vento 1.6 Comfortline 2013 Buy in Kathmandu,"NRs 23,00000"
Hyundai I20 Sportz 2011 Buy in Kathmandu Nepal,"NRs 17,00,000"
Maruti Suzuki Eeco Van 2015 with AC buy in Kathmandu Nepal,"NRs 15,50,000"
Hyundai i10 Magna 2010 Buy in Kathmandu Nepal,"NRs 15,50,000"
Ford Ecosport 1.5 Trend 2014 Buy in Kathmandu Nepal,"NRs 27,75,000"
Hyundai I20 Magna 2009 Buy in Kathmandu Nepal,"NRs 15,25,000"
Kia Picanto Ex Auto Gear 2014 Buy in Kathmandu Nepal,"NRs 24,00000"
Suzuki Zen 2005 Buy in Kathmandu Nepal,"NRs 6,25,000"
Hyundai Accent 2008 Buy in Kathmandu Nepal,"NRs 15,00000"
Kia Picanto 2006 Buy in Kathmandu Nepal,"NRs 8,25,000"
Daihatsu Terios 2008 Buy in Kathmandu Nepal,"NRs 29,00000"
Hyundai i20 Sportz 2010 Buy in Kathmandu Nepal,"NRs 17,00000"
Hyundai i10 Magna 2010 Buy in Kathmandu Nepal,"NRs 15,25,000"
Non Handed Ford Ecosport 1.5 Petrol 2016 Buy in Kathmandu Nepal,"NRs 36,00000"
Hyundai i20 Asta 2010 Buy in Kathmandu Nepal,"NRs 17,00,000"
Maruti Suzuki Astar ZXi 2010 Buy in Kathmandu Nepal,"NRs 11,75,000"
Volkswagen Polo 1.2 Comfortline 2012 Buy in Kathmandu Nepal,"NRs 18,00000"
Hyundai Grand i10 Asta 2014 Buy in Kathmandu Nepal,"NRs 24,00000"
Swift Dzire LXI 2009 Buy in Kathmandu Nepal,"NRs 13,25,000"
Hyundai Eon Era+ 2014 Buy in Kathmandu Nepal,"NRs 14,25,000"
Suzuki Swift VXI 2005 Buy in Kathmandu Nepal,"NRs 11,00000"
Maruti Suzuki Alto 2002 Buy in Kathmandu Nepal,"NRs 5,25,000"
Hyundai I20 Magna 2009 Buy in Kathmandu Nepal,"NRs 15,00,000"
Ford Figo 2011 Zxi Buy in Kathmandu Nepal,"NRs 12,75,000"
Daihatsu Terios 2007 Buy in Kathmandu Nepal,"NRs 27,50,000"
Hyundai i10 Era 2009 Buy in Kathmandu Nepal,"NRs 12,50,000"
Kia Sportage 2007 Buy in Kathmandu Nepal,"NRs 21,00000"
Swift Dzire VXI 2010 Buy in Kathmandu Nepal,"NRs 15,75,000"
Hyundai Grand I10 Magna 2014 Buy in Kathmandu Nepal,"NRs 20,50,000"
Suzuki Omni van 2000 buy in Kathmandu Nepal,"NRs 3,25,000"
Hyundai Santro GLS 2009 Buy in Kathmandu Nepal,"NRs 12,25,000"
Hyundai Grand i10 Asta 2014 Buy in Kathmandu Nepal,"NRs 24,00000"
Ford Figo ZXI 2013 buy in Kathmandu Nepal,"NRs 14,75,000"
Hyundai santro Xing 2003 Buy in Kathmandu,"NRs 8,25,000"
Maruti Suzuki Baleno 2016 Buy in Kathmandu Nepal,"NRs 26,50,000"
Hyundai Santro 2009 buy in Kathmandu Nepal,"NRs 12,25,000"
Maruti Suzuki Cargo Van 2012 Buy in Kathmandu Nepal,"NRs 5,75,000"
Maruti Suzuki Wagon R Vxi 2013 Buy in Kathmandu Nepal,"NRs 15,25,000"
Suzuki Zen Estilo VXI 2010,"NRs 11,00000"
Hyundai Santro 2006 Buy in Kathmandu Nepal,"NRs 9,25,000"
Hyundai Elantra GLS 2012 Buy in Kathmandu Nepal,"NRs 36,00000"
Toyota Corolla LX 2008 Buy in Kathmandu Nepal,"NRs 27,00,000"
Hyundai i20 Asta 2010 Buy in Kathmandu Nepal,"NRs 17,50,000"
Maruti Suzuki Alto Lx 800 2003,"NRs 5,75,000"
Hyundai Tucson GL 2008 Buy in Kathmandu Nepal,"NRs 28,50,000"
Mahindra Scorpio 2014 Buy in Kathmandu Nepal,"NRs 26,50,000"
Brand New Maruti Suzuki Baleno Available with Exchange Facility,"NRs 30,69,000"
Hyundai Santro 2007 Buy in Kathmandu Nepal,"NRs 11,25,000"
Ford Figo ZXI 2012 buy in Kathmandu Nepal,"NRs 13,75,000"
Hyundai santro 2010 Buy in Kathmandu Nepal,"NRs 12,25000"
Suzuki Omni van 2014 buy in Kathmandu Nepal,"NRs 11,25,000"
Nissan D22 pick up 2002 buy in Kathmandu Nepal,"NRs 17,00000"
Ford Figo ZXI 2012 buy in Kathmandu Nepa,"NRs 13,75,000"
Ford figo Titanium 2013 Buy in Kathmandu Nepal,"NRs 16,75,000"
Tata Indica Xeta-GLX 2009,"NRs 8,25,000"
Kia Sportage 2007 Buy in Kathmandu Nepal,"NRs 24,00000"
Volkswagen Polo 1.2 Comfortline  2011 Buy in Kathmandu Nepal,"NRs 17,50,000"
Hyundai santro 2002 Buy in Kathmandu Nepal,"NRs 5,75,000"
Ford Figo ZXI 2012 Buy in Kathmandu Nepal,"NRs 13,75,000"
Hyundai Grand i10 Magna 2014 Buy in Kathmandu Nepal,"NRs 20,00000"
Hyundai Santro 2007 Buy in Kathmandu Nepal,"NRs 11,00000"
Maruti suzuki swift ZXI 2015,"NRs 24,00000"
Hyundai i10 Magna 2010 Buy in Kathmandu Nepal,"NRs 14,75,000"
Hyundai i10 Sportz 2011 Buy in Kathmandu Nepal,"NRs 16,50,000"
Honda City 1.5 SMT 2011 Buy in Kathmandu Nepal,"NRs 23,50,000"
Hyundai santro Gls 2003 Buy in Kathmandu Nepal,"NRs 7,75,000"
Maruti Suzuki Swift VXI 2006 Buy in Kathmandu Nepal,"NRs 11,50,000"
Maruti Suzuki SX4 2010 Buy in Kathmandu NepaI,"NRs 14,75,000"
Hyundai Accent  2006 Buy in Kathmandu Nepal,"NRs 12,25,000"
Hyundai Grand i10 Asta Auto Transmission 2014 Buy in Kathmandu Nepal,"NRs 26,00,000"
Tata Vista 2009 Buy in Kathmandu Nepal,"NRs 11,75,000"
Niissan Xtrail Auto Gear 2005 Buy in Kathmandu Nepal,"NRs 23,00,000"
Kia Sportage 4WD  2008 Buy in Kathmandu Nepal,"NRs 28,50,000"
Hyundai i20 Asta 2009 Buy in Kathmandu Nepal,"NRs 16,50,000"
Suzuki Swift Dzire VXI 2010 Buy in Kathmandu Nepal,"NRs 15,75,000"
Suzuki Swift Dzire ZXi 2013 Buy in Kathmandu Nepal,"NRs 24,00000"
Suzuki Swift Dzire ZXi 2013 Buy in Kathmandu Nepal,"NRs 23,50,000"
Mahindra Scorpio 2013 Buy in Kathmandu Nepal,"NRs 26,00000"
Hyundai Getz 2004 with air bag and ABS Buy in Kathmandu Nepal,"NRs 9,25,000"
Hyundai Santro Gls 2009 Buy in Kathmandu Nepal,"NRs 12,25,000"
Hyundai i10 Magna 2011 Buy in Kathmandu Nepal,"NRs 15,25,000"
Hyundai Santro Xing XS 2003 Buy in Kathmandu Nepal,"NRs 8,50,000"
Hyundai i10 Magna 2011 Buy in Kathmandu Nepal,"NRs 15,25,000"
Hyundai Grand i10 Magna 2014 Buy in Kathmandu Nepal,"NRs 20,50,000"
Maruti Suzuki Swift VXI 2012 Buy in Kathmandu Nepal,"NRs 19,00,000"
Hyundai i10 Sportz 2010 Buy in Kathmandu Nepal,"NRs 15,50,000"
Maruti Suzuki Alto Lx 800 2010 Buy in Kathmandu Nepal,"NRs 9,25,000"
Chevrolet Aveo LS 2010 Buy in Kathmandu Nepal,"NRs 12,50,000"
Mahindra Scorpio 2013 Buy in Kathmandu Nepal,"NRs 25,50000"
Suzuki Alto K10 VXi 2011 Buy in Kathmandu Nepal,"NRs 12,25,000"
Volkswagen Polo 1.2 Trendline 2012 Buy in Kathmandu Nepal,"NRs 17,50000"
Volkswagen Polo 1.6 Highline 2013 Buy in in Kathmandu Nepal,"NRs 23,00000"
Maruti Suzuki Wagon R Vxi 2016 Buy in Kathmandu Nepal,"NRs 19,00,000"
Hyundai i10 Grand magna 2014 buy in Kathmandu Nepal,"NRs 20,50,000"
Hyundai i10 Magna 2010 Buy in Kathmandu Nepal,"NRs 15,50,000"
Ford Figo ZXI 2012 Buy in Kathmandu Nepal,"NRs 13,75,000"
Volkswagen Polo 1.2 Trendline 2012 Buy in Kathmandu Nepal,"NRs 17,50,000"
Hyundai i10 Era 2009 Buy in Kathmandu Nepal,"NRs 12,50,000"
Hyundai Grand i10 Asta 2014 Buy in Kathmandu Nepal,"NRs 23,50,000"
Nissan SuperSaloon 2005 Buy in Kathmandu Nepal,"NRs 13,50,000"
Opel Corsa 1.4 2003 Buy in Kathmandu Nepal,"NRs 4,25,000"
Hyundai Grand i10 Sportz 2015 Buy in Kathmandu Nepal,"NRs 24,00000"
Daihatsu Coure 1998 Buy in Kathmandu Nepal,"NRs 2,80,000"
Mahindra Bolero SLX 2009 Seven Seater Buy in Kathmandu Nepal,"NRs 15,50,000"
Hyundai Santro GLS 2008 Buy in Kathmandu NepaI,"NRs 11,75,000"
Nissan SuperSaloon 2002 Buy in Kathmandu Nepal,"NRs 11,00,000"
Maruti Suzuki Wagon R lx 2009 Buy in Kathmandu Nepal,"NRs 9,25,000"
Toyota Corolla Lx 2011 Buy in Kathmandu Nepal,"NRs 33,00000"
Maruti Suzuki Wagon R Vxi 2016 Buy in Kathmandu Nepal,"NRs 18,50,000"
Hyundai i20 Asta 2009 Buy in Kathmandu Nepal,"NRs 16,50,000"
Volkswagen Polo 1.6 Highline 2012 Buy in in Kathmandu Nepal,"NRs 21,50,000"
Kia Picanto 2004 Buy in Kathmandu Nepal,"NRs 7,00000"
Ford Fiesta TDI 1.5 2014 Buy In Kathmandu Nepal,"NRs 29,00000"
Toyota Echo 2001 buy in Kathmandu Nepal,"NRs 9,25,000"
Volkswagen Polo 1.6 Highline 2013 Buy in in Kathmandu Nepal,"NRs 23,00000"
Maruti Suzuki Alto Lx 800 2008 Buy in Kathmandu Nepal,"NRs 8,25,000"
Kia Picanto Ex 2010 Buy in Kathmandu Nepal,"NRs 12,50,000"
Volkswagen Polo 1.6 Highline 2013 Buy in in Kathmandu Nepal,"NRs 23,00000"
Fiat linea Dynamic 2011,"NRs 14,00,000"
Hyundai santro 2007 Buy in Kathmandu Nepal,"NRs 11,50,000"
Kia Sportage 2010 Buy in Kathmandu Nepal,"NRs 28,00,000"
Ford figo 2011 Ixi Diesel,"NRs 12,25,000"
Maruti Suzuki 800 2006 Buy in Kathmandu Nepal,"NRs 5,25,000"
Hyundai i10 Magna 2010 Buy in Kathmandu Nepal,"NRs 15,25,000"
Hyundai i10 Magna 2009 Buy in Kathmandu Nepal,"NRs 13,60,000"
Kia Rio 2006 Buy in Kathmandu NepaI,"NRs 10,25,000"
Hyundai i10 Magna 2009 Buy in Kathmandu Nepal,"NRs 13,60,000"
Kia Picanto Ex 2004 Buy in Kathmandu Nepal,"NRs 7,00000"
Suzuki Alto K10 VXi 2012 Buy in Kathmandu Nepal,"NRs 13,00000"
Hyundai Accent 2008 Buy in Kathmandu,"NRs 14,25,000"
Hyundai grand i10 Magna 2014 Buy in Kathmandu Nepal,"NRs 20,50000"
Ford Endeavour Auto Gear 2014 Buy in Kathmandu Nepal,"NRs 66,00000"
Maruti Suzuki A Star 2009 Buy in Kathmandu Nepal,"NRs 11,00000"
Hyundai Tucson GL 2008 Buy in Kathmandu Nepal,"NRs 29,00,000"
Maruti Suzuki Swift VXI 2012 Buy in Kathmandu Nepal,"NRs 18,25,000"
Toyota Echo 2001 buy in Kathmandu Nepal,"NRs 10,75,000"
Hyundai i20 Asta 2009 with 8 Air Bags Buy in Kathmandu Nepal,"NRs 18,00000"
Maruti Suzuki Swift VXI 2007 Buy in Kathmandu Nepal,"NRs 12,50,000"
Hyundai i20 Asta 2010 Buy in Kathmandu Nepal,"NRs 17,25,000"
Mahindra Scorpio pickup 2016 buy in Kathmandu,"NRs 31,00000"
Maruti Suzuki WagonR  LX 2010 Buy in Kathmandu Nepal,"NRs 10,25,000"
Maruti Suzuki A Star VXI 2009 Buy in Kathmandu Nepal,"NRs 11,25,000"
Ford Ranger double cab pickup with 4WD 2010 buy in Kathmandu Nepal,"NRs 32,00000"
Mahindra Xuv 500 Fwd W6 2014 Buy in Kathmandu Nepal,"NRs 41,00,000"
Maruti Suzuki Alto LX 2010 Buy in Kathmandu Nepal,"NRs 9,25,000"
Maruti Suzuki Alto LX 2010 Buy in Kathmandu Nepal,"NRs 9,25,000"
Hyundai i10 Era 2009 Buy in Kathmandu Nepal,"NRs 12,75,000"
Toyota EE100 Corolla 1993 Buy in Kathmandu Nepal,"NRs 3,50,000"
Hyundai Santro Xing XO 2007 Buy in Kathmandu Nepal,"NRs 11,25,000"
Ford Ecosport 1.5l Ambiente Diesel 2013 Buy in Kathmandu Nepal,"NRs 28,00,000"
Maruti Suzuki Alto K10 2011 Buy in Kathmandu Nepal,"NRs 12,25,000"
Hyundai Santro GLS 2009 Buy in Kathmandu NepaI,"NRs 12,25,000"
Hyundai i20 Asta 2009 Buy in Kathmandu Nepal,"NRs 17,00,000"
Hyundai I20 Elite 1.2 Asta Buy in Kathmandu Nepal,"NRs 29,50,000"
Maruti Suzuki Zen Estilo LX 2008 Buy in Kathmandu Nepal,"NRs 7,75,000"
Hyundai Xcent Kappa S 2014 Buy in Kathmandu Nepal,"NRs 22,50,000"
Ford Figo EXI 2012 Buy in Kathmandu Nepal,"NRs 14,00,000"
Maruti Suzuki Swift VXI 2007 Buy in Kathmandu Nepal,"NRs 13,00,000"
Ford Figo lxi 2012 buy in Kathmandu Nepal,"NRs 13,00,000"
Hyundai Grand i10 Asta 2014 Buy in Kathmandu Nepal,"NRs 24,00,000"
Nissan SuperSaloon 2008 Buy in Kathmandu Nepal,"NRs 17,00,000"
Toyota Prado 1996 Buy in Kathmandu NepaI,"NRs 26,00,000"
Maruti Suzuki Cargo Van 2007 Buy in Kathmandu Nepal,"NRs 4,50,000"
Maruti Suzuki Wagon R VXI 2012 Buy in Kathmandu Nepal,"NRs 15,00,000"
Maruti Suzuki Ritz ZXi 2010 Buy in Kathmandu Nepal,"NRs 13,25,000"
Hyundai i20 Sportz 2013 Buy in Kathmandu Nepal,"NRs 22,50,000"
Maruti Suzuki Swift VXi 2008 Buy in Kathmandu Nepal,"NRs 14,00,000"
Maruti Suzuki Swift Dzire VXi 2009 Buy in Kathmandu Nepal,"NRs 15,50,000"
Hyundai i10 Magna 2010 Buy in Kathmandu Nepal,"NRs 14,75,000"
Toyota Corolla LX 2001 A/T (Auto Gear) Buy in Kathmandu Nepal,"NRs 15,00,000"
Hyundai i10 Era 2009 Buy in Kathmandu Nepal,"NRs 12,75,000"
Daihatsu Sirion 1.3 2006 Buy in Kathmandu Nepal,"NRs 9,50,000"
Hyundai i10 Magna 2008 Buy in Kathmandu Nepal,"NRs 13,25,000"
Kia Rio 2007 Buy in Kathmandu NepaI,"NRs 12,50,000"
Hyundai Eon Era+ 2012 Buy in Kathmandu NepaI,"NRs 12,75,000"
Hyundai Santro GLS 2008 Buy in Kathmandu NepaI,"NRs 11,75,000"
Maruti Suzuki Alto LX 2013 Buy in Kathmandu Nepal,"NRs 11,00,000"
Maruti Suzuki Swift Dzire VXi 2009 Buy in Kathmandu Nepal,"NRs 15,50,000"
Hyundai i20 Asta 2010 Buy in Kathmandu Nepal,"NRs 17,00,000"
Hyundai i20 Asta 2009 Buy in Kathmandu Nepal,"NRs 17,00,000"
Ford Figo EXi 2013 Buy in Kathmandu Nepal,"NRs 14,50,000"
Hyundai i20 Asta 2009 Buy in Kathmandu Nepal,"NRs 17,00,000"
Ford Figo Titanium 2010 Buy in Kathmandu Nepal.,"NRs 13,00,000"
Hyundai Getz 2009 Buy in Kathmandu Nepal,"NRs 12,75,000"
Volkswagen Vento 1.6 Highline 2013 Buy in in Kathmandu Nepal,"NRs 28,00,000"
Suzuki Alto K10 VXi 2012 Buy in Kathmandu Nepal,"NRs 13,25,000"
Zen Estilo LX 2008 Buy in Kathmadu Nepal,"NRs 10,00,000"
Hyundai Santro GLS 2009 Buy in Kathmandu Nepal,"NRs 12,25,000"
Suzuki Alto K10 2011 Buy in Kathmandu Nepal,"NRs 12,00,000"
Hyundai Santro 2006 Buy in Kathmandu Nepal,"NRs 10,00,000"
Hyundai Getz 2008 Buy in Kathmandu Nepal,"NRs 11,50,000"
Kia Rio 2002 Buy in Kathmandu Nepal,"NRs 5,75,000"
Maruti Suzuki Omni Van 2013 Buy in Kathmandu Nepal,"NRs 10,50,000"
Tata Nano 2011 Buy i Kathmandu Nepal,"NRs 4,25,000"
Spark LT 2009 Buy in Kathmandu Nepal,"NRs 9,75,000"
Hyundai Santro GL 2008 Buy in Kathmandu Nepal,"NRs 11,00,000"
Opel Corsa  2005 Buy in Kathmandu Nepal,"NRs 5,75,000"
Tata Vista ZGX DuaI Airbags 2012 Buy in Kathmandu Nepal,"NRs 13,50,000"
Nissan SuperSaloon 2001 Buy in Kathmandu Nepal,"NRs 9,75,000"
Zyote 2009 Buy in Kathmandu Nepal,"NRs 10,50,000"
Hyundai i10 Magna 2011 Buy in Kathmandu Nepal,"NRs 15,75,000"
Hyundai i10 Era 2009 Buy in Kathmandu Nepal,"NRs 13,00,000"
Hyundai Santro GLS 2009 Buy in Kathmandu Nepal,"NRs 12,50,000"
Hyundai Santro 2005 Buy in Kathmandu Nepal,"NRs 9,50,000"
Mahindra Scorpio Slx CRDI 4WD 2007 Buy in Kathmandu NepaI,"NRs 26,00,000"
Ford Figo EXi 2012 Buy in Kathmandu Nepal,"NRs 13,50,000"
Hyundai i20 Asta 2009 Auto Gear Buy in Kathmandu Nepal,"NRs 18,50,000"
Tata Nano CX 2011with A/C Buy in Kathmandu Nepal,"NRs 4,50,000"
Hyundai Accent 2008 Buy in Kathmandu Nepal.,"NRs 14,25,000"
Toyota Echo 2000 Buy in Kathmandu Nepal,"NRs 10,00,000"
Maruti Suzuki Swift Lxi 2005 Buy in Kathmandu Nepa,"NRs 10,50,000"
Hyundai Grand i10 Asta 2014 Buy in Kathmandu Nepal,"NRs 24,50,000"
Mahindra Scorpio S4 2wd Bs4 (8/9 Seater) Buy in Kathmandu Nepal,"NRs 36,00,000"
Volkswagen Polo 1.6 Highline 2013 Buy in in Kathmandu Nepal,"NRs 23,50,000"
Hyundai Santro 2000 Buy in Kathmandu Nepal,"NRs 5,50,000"
Hyundai Santro Atos 2007 Buy in Kathmandu Nepal,"NRs 9,00,000"
Maruti Suzuki Alto 800 Lxi 2013 Buy in Kathmandu Nepal,"NRs 12,75,000"
Hyundai Santro XO 2007 Buy in Kathmandu Nepal,"NRs 11,50,000"
Maruti Suzuki Cargo Van 2012 Buy in Kathmandu Nepal,"NRs 6,50,000"
Hyundai i20 Asta 2009 Buy in Kathmandu Nepal,"NRs 17,00,000"
Maruti Suzuki Zen Estilo VXi 2010 Buy in Kathmandu Nepal,"NRs 11,25,000"
Hyundai i20 Era 2010 Buy in Kathmandu Nepal,"NRs 15,00,000"
Hyundai i20 Magna 2009 Buy in Kathmandu Nepal,"NRs 15,00,000"
Maruti Suzuki Wagon R VXi 2012 Buy in Kathmandu Nepal,"NRs 15,00,000"
Hyundai i10 Magna 1.2 2010 Buy in Kathmandu Nepal,"NRs 15,75,000"
Ford Figo Titanium 2012 Buy in Kathmandu Nepal.,"NRs 15,50,000"
Maruti Suzuki Wagon R VXi 2013 Buy in Kathmandu Nepal,"NRs 15,50,000"
Daihatsu Sirion 1000 C.C 2009 Buy in Kathmandu Nepal,"NRs 11,00,000"
Maruti Suzuki Wagon R VXi 2009 Buy in Kathmandu Nepal,"NRs 10,50,000"
Hyundai i10 Era 2009 Buy in Kathmandu Nepal,"NRs 12,75,000"
Hyundai i10 Magna 1.1 2011 Buy in Kathmandu Nepal,"NRs 15,75,000"
Volkswagon Polo 1.2 Comfortline 2013 Buy in Kathmandu Nepal,"NRs 21,50,000"
Hyundai i10 Magna 1.2 2010 Buy in Kathmandu Nepal,"NRs 15,75,000"
Hyundai Santro GLS 2008 Buy in Kathmandu Nepal,"NRs 12,00,000"
Hyundai i20 Asta 2010 Buy in Kathmandu Nepal,"NRs 17,75,000"
Hyundai Grand i10 Asta 2014 Buy in Kathmandu Nepal,"NRs 24,00,000"
Toyota Yaris 2007 Buy in Kathmandu Nepal,"NRs 21,00,000"
Hyundai i10 Magna 1.2 2014 Buy in Kathmandu Nepal,"NRs 18,75,000"
Hyundai Santro 2003 Buy in Kathmandu Nepal,"NRs 7,25,000"
Kia Picanto Ex 2010 Buy in Kathmandu Nepal,"NRs 13,00,000"
Hyundai Santro XO 2007 Buy in Kathmandu Nepal,"NRs 11,50,000"
Hyundai i10 Era 2009 Buy in Kathmandu Nepal,"NRs 13,00,000"
Ford Figo Titanium 2014 Buy in Kathmandu Nepal.,"NRs 17,50,000"
Hyundai i10 Magna 2010 Buy in Kathmandu Nepal.,"NRs 15,75,000"
Maruti Suzuki Swift VXi 2012 Buy in Kathmandu Nepal,"NRs 19,50,000"
Maruti Suzuki Zen Estilo VXi 2010 Buy in Kathmandu Nepal,"NRs 11,50,000"
Hyundai Verna 1.6 SX 2014 Buy in Kathmandu Nepal,"NRs 31,00,000"
Maruti Suzuki Alto Lx 800 2010 Buy in Kathmandu Nepal,"NRs 9,75,000"
Hyundai i10 Sportz 2011 Buy in Kathmandu Nepal,"NRs 16,50,000"
Hyundai Santro XO 2006 Buy in Kathmandu Nepal,"NRs 10,75,000"
Toyota Echo 2001 Buy in Kathmandu Nepal,"NRs 11,50,000"
Suzuki Swift ZXi 2013 Buy in Kathmandu Nepal,"NRs 23,00,000"
Honda City ZX 2004 Buy in Kathmandu Nepal,"NRs 12,50,000"
Chevrolet Beat 2010 Buy in Kathmandu Nepal,"NRs 12,75,000"
Daihatsu Terios SX 2009 Buy in Kathmandu Nepal,"NRs 40,00,000"
Mazda 3 V Grade 2009 Buy in Kathmandu Nepal,"NRs 27,50,000"
Zyote 2009 Buy in Kathmandu Nepal,"NRs 11,25,000"
Maruti Suzuki Swift Dzire LXi 2009 Buy in Kathmandu Nepal,"NRs 14,50,000"
Toyota Corolla AE 110 Buy in Kathmandu Nepal,"NRs 7,25,000"
Suzuki Swift Dzire VXI 2013 Buy in Kathmandu Nepal,"NRs 22,75,000"
Ford Figo EXi 2014 Buy in Kathmandu Nepal,"NRs 15,25,000"
Hyundai i10 Magna 2009 Buy in Kathmandu Nepal,"NRs 14,00,000"
Daihatsu Terios SX 2007 Buy in Kathmandu Nepal,"NRs 31,00,000"
Tata Nano 2012 Buy in Kathmandu Nepal,"NRs 4,25,000"
Maruti Suzuki A Star VXI 2009 Buy in Kathmandu Nepal,"NRs 12,00,000"
Maruti Suzuki Swift Dzire VXi 2009 Buy in Kathmandu Nepal,"NRs 15,50,000"
Hyundai i10 Magna 2010 Buy in Kathmandu Nepal.,"NRs 15,75,000"
Maruti Suzuki Swift ZXI 2010 Buy in Kathmandu Nepal,"NRs 18,00,000"
Kia Picanto Ex 2008 Buy in Kathmandu Nepal,"NRs 11,00,000"
Mahindra Kuv 100 K4 2016 Buy in Kathmandu Nepal,"NRs 24,50,000"
Alto VXi 2002 Buy in Kathmandu Nepal,"NRs 6,75,000"
Tata Nano Cx 2011 Buy in Kathmandu Nepal,"NRs 4,50,000"
Maruti Suzuki Cargo Van 2011 Buy in Kathmandu Nepal,"NRs 6,00,000"
Hyundai i20 Asta 2010 Buy in Kathmandu Nepal,"NRs 18,00,000"
Hyundai i10 Magna 2009 Buy in Kathmandu Nepal.,"NRs 14,00,000"
Ford EcoSport 1.5l Ambiente Petrol 2014 is SOLD,"NRs 24,50,000"
Daihatsu Cuore 1999 Buy in Kathmandu Nepal,"NRs 3,25,000"
Maruti Suzuki Zen Estilo VXI 2011 Buy in Kathmandu Nepal,"NRs 12,25,000"
Hyundai i10 Magna 2012 Buy in Kathmandu Nepal.,"NRs 16,00,000"
Maruti Suzuki Alto K10 2014 Buy in Kathmandu Nepal,"NRs 13,75,000"
Maruti Suzuki Swift Dzire ZXI 2013 Buy in Kathmandu Nepal,"NRs 24,00,000"
Maruti Suzuki Zen Estilo VXI 2010 Buy in Kathmandu Nepal,"NRs 11,00,000"
Ford Figo ZXI 2011 Buy in Kathmandu Nepal,"NRs 13,25,000"
SKODA RAPID ACTIV 2013 Buy in Kathmandu Nepal,"NRs 22,50,000"
Kia Sportage 2009 Buy in Kathmandu Nepal,"NRs 23,00,000"
Hyundai Accent 2008 Buy in Kathmandu Nepal.,"NRs 14,25,000"
Kia Sportage 2008 Buy in Kathmandu Nepal,"NRs 29,50,000"
Maruti Suzuki Alto Lx 800 with A/C 2008 Buy in Kathmandu Nepal,"NRs 8,25,000"
Hyundai Santro XO 2007 Buy in Kathmandu Nepal,"NRs 11,50,000"
Hyundai i10 Era 2009 Buy in Kathmandu Nepal,"NRs 12,75,000"
Hyundai i10 Magna 2012 Buy in Kathmandu Nepal.,"NRs 17,25,000"
Hyundai Santro GLS 2011 Buy in Kathmandu Nepal,"NRs 13,25,000"
AltoLx with A/C 2002 Buy in Kathmandu Nepal,"NRs 5,75,000"
Ford Figo ZXI 2012 Buy in Kathmandu Nepal,"NRs 13,75,000"
Hyundai i10 Magna 2009 Buy in Kathmandu Nepal,"NRs 13,50,000"
Alto Lx 2011 Buy in Kathmandu Nepal,"NRs 10,00,000"
Hyundai i20 Magna 2010 Buy in Kathmandu Nepal,"NRs 16,25,000"
Kia Picanto Ex Auto Gear 2012 Buy in Kathmandu Nepal,"NRs 21,50,000"
Swift Dzire VXI 2010 Buy in Kathmandu Nepal.,"NRs 16,50,000"
Hyundai Santro GLS 2009 Buy in Kathmandu Nepal,"NRs 12,25,000"
Nissan Sunny 2013 Buy in Kathmandu Nepal,"NRs 26,75,000"
Wagon R VXI 2013 With 14000 Km Buy in Kathmandu Nepal,"NRs 15,25,000"
Tata Vista Diesel 2011 Buy in kathmandu Nepal,"NRs 13,00,000"
Hyundai Grand i10 Magna 2014 with 5500 Km Buy in Kathmandu Nepal,"NRs 21,25,000"
Daihatsu Sirion 1.3 2008 Buy in Kathmandu Nepal,"NRs 12,50,000"
Hyundai Santro Xing 2004 Buy in Kathmandu Nepal,"NRs 8,00,000"
Toyota Yaris 2007 Buy in Kathmandu Nepal,"NRs 20,50,000"
Ford Figo ZXI 2010 Buy in Kathmandu Nepal,"NRs 12,50,000"
Maruti Suzuki Swift LXI 2007 Buy in Kathmandu Nepal,"NRs 12,00,000"
Suzuki Swift Dzire ZXI 2013 Buy in Kathmandu Nepal,"NRs 24,00,000"
Toyota Avanza 7 Seater 2012 Buy in Kathmandu Nepal,"NRs 28,50,000"
Tata Safire GVX ABS 2013 Buy in Kathmandu Nepal,"NRs 13,00,000"
Maruti Suzuki Alto Lx 800 2007 Buy in Kathmandu Nepal,"NRs 7,75,000"
Hyundai Santro GLS 2009 Buy in Kathmandu Nepal,"NRs 12,25,000"
Mahindra XUV 500 W8 AWD 2013 Buy in Kathmandu Nepal,"NRs 47,00,000"
Hyundai Santro GL Plus 2011 Buy in Kathmandu Nepal,"NRs 13,50,000"
Hyundai i20 Sportz 2010 Buy in Kathmandu Nepal,"NRs 17,25,000"
Tata Safari Lx 2.2 Dicor Diesel 7 Seater 2013 Buy in Kathmandu Nepal,"NRs 24,00,000"
Suzuki Ignis 2004 Buy in Kathmandu Nepal,"NRs 12,50,000"
Opel Corsa SAIL 2005 Buy in Kathmandu Nepal,"NRs 6,00,000"
Nissan SuperSaloon 2003 Buy in Kathmandu Nepal,"NRs 12,00,000"
Volkswagon Polo 1.2 Comfortline 2014 Buy in Kathmandu Nepal,"NRs 23,50,000"
Hyundai i20 Asta 2009 Buy in Kathmandu Nepal,"NRs 17,25,000"
Wagon R VXi 2008 Buy In Kathmandu NepalBuy In Kathmandu Nepal,"NRs 9,25,000"
Hyundai i10 Sportz 2011 Buy in Kathmandu Nepal,"NRs 16,75,000"
Kia Sportage 2010 with 10 Airbags Buy in Kathmandu Nepal,"NRs 46,00,000"
Toyota Avanza 2011 Buy in Kathmandu Nepal.,"NRs 24,50,000"
Hyundai i20 Asta 2009 Buy in Kathmandu Nepal,"NRs 17,00,000"
Tata Sumo Gold GX 2012 Buy in Kathmandu Nepal,"NRs 20,50,000"
Hyundai i20 Magna 2010 Buy in Kathmandu Nepal,"NRs 16,25,000"
Chevrolet Aveo LS 2009 Buy in Kathmandu Nepal,"NRs 14,00,000"
Hyundai Santro GLS 2009 Buy in Kathmandu Nepal,"NRs 12,50,000"
Maruti Suzuki Omni 8 Seater Van 1999 Buy in Kathmandu Nepal,"NRs 4,50,000"
Kia Picanto Ex 2006 Buy in Kathmandu Nepal,"NRs 8,75,000"
Hyundai i20 Asta 2009 Buy in Kathmandu Nepal,"NRs 17,25,000"
Hyundai i20 Asta 2009 Buy in Kathmandu Nepal,"NRs 17,25,000"
Hyundai Grand i10 Magna 2013 Buy in Kathmandu Nepal,"NRs 19,75,000"
Hyundai Santro GLS 2008 Buy in Kathmandu Nepal,"NRs 11,75,000"
Maruti Suzuki Swift ZXI 2015 Buy in Kathmandu Nepal,"NRs 26,50,000"
Hyundai Grand i10 Asta 2014 Buy in Kathmandu Nepal,"NRs 24,75,000"
Hyundai i20 Magna 2009 Buy in Kathmandu Nepal,"NRs 15,50,000"
Chevrolet Aveo LT 2009 Buy in Kathmandu Nepal,"NRs 14,50,000"
Hyundai i20 Magna 2010 Buy in Kathmandu Nepal,"NRs 16,50,000"
Tata Grande 7 Seater Gx Mk-ii 2010 Buy in Kathmandu Nepal,"NRs 15,50,000"
Alto Lx 2009 Buy in Kathmandu Nepal,"NRs 9,25,000"
Zyote 2008 Buy in Kathmandu Nepal,"NRs 10,25,000"
Toyota Corolla Lx 2007 New Shape Buy in Kathmandu Nepal,"NRs 27,50,000"
Honda City S 2009 Buy in Kathmandu Nepal.,"NRs 21,50,000"
Hyundai i10 Era 2009 Buy in Kathmandu Nepal,"NRs 12,50,000"
Alto Lx 2009 Buy in Kathmandu Nepal,"NRs 9,50,000"
Kia Sportage 2007 Buy in Kathmandu Nepal,"NRs 28,50,000"
Kia Picanto Ex 2009 Buy in Kathmandu Nepal,"NRs 12,25,000"
Hyundai Santro Xing 2007 Buy in Kathmandu Nepal,"NRs 11,75,000"
Volkswagen Polo 1.2 Highline 2013 Buy in Kathmandu Nepal,"NRs 25,50,000"
Maruti Suzuki 800 1995 Buy in Kathmandu Nepal,"NRs 3,25,000"
Volkswagen Polo 1.2 Comfortline 2012 Buy in Kathmandu Nepal,"NRs 21,00,000"
Maruti Suzuki A Star VXi 2010 Buy in Kathmandu Nepal,"NRs 12,00,000"
Kia Sportage 2007 Buy in Kathmandu Nepal,"NRs 28,50,000"
Ford EcoSport Diesel TDCI Titanium O (Fully Loaded) Buy in Kathmandu Nepal,"NRs 43,50,000"
Maruti Suzuki Alto Lx with A/C 2009 Buy in Kathmandu Nepal,"NRs 9,50,000/-"
Opel Corsa 2003 1.4 Buy in Kathmandu Nepal,"NRs 5,50,000"
Hyundai i10 Era 2010 Buy in Kathmandu Nepal,"NRs 14,25,000"
Maruti Suzuki Swift Dzire VXi 2009 Buy in Kathmandu Nepal,"NRs 15,75,000"
Chevrolet Spark 2009 Buy in Kathmandu  Nepal,"NRs 10,25,000"
Daihatsu Sirion 1.3 2007 Buy in Kathmandu Nepal,"NRs 11,75,000"
Skoda Laura TDI 2011 Buy in Kathmandu Nepal,"NRs 32,00,000"
Nissan Navara LE 2010 Buy in Kathmandu Nepal,"NRs 37,50,000"
Hyundai i20 Asta 2010 Buy in Kathmandu Nepal,"NRs 18,50,000"
Maruti Suzuki Astar ZXi 2010 Buy in Kathmandu Nepal,"NRs 13,50,000"
Hyundai i20 Asta 2009 Buy in Kathmandu Nepal,"NRs 17,50,000"
Hyundai i10 Magna 2010 Buy in Kathmandu Nepal,"NRs 15,75,000"
Maruti Suzuki Zen Estilo VXi 2009 Buy in Kathmandu Nepal,"NRs 10,50,000"
Maruti Suzuki Alto LXi 800 2014 Buy in Kathmandu Nepal,"NRs 14,50,000"
Tata Nano 2011 Buy in Kathmandu Nepal,"NRs 4,00,000"
Hyundai i20 Asta 2009 Buy in Kathmandu Nepal,"NRs 17,50,000"
Kia Rio 2009 with sunroof Buy in Kathmandu Nepal,"NRs 12,75,000"
Hyundai Santro Xing XO 2007 Buy in Kathmandu Nepal,"NRs 11,75,000"
Hyundai Santro 2005 Buy in Kathmandu Nepal,"NRs 10,25,000"
Maruti Suzuki Swift Dzire VXi 2010 Buy in Kathmandu Nepal,"NRs 16,50,000"
Tata Indica Petrol 2009 Buy in Kathmandu Nepal,"NRs 8,50,000"
Honda City 1.5 2014 Buy in Kathmandu Nepal,"NRs 31,00,000"
Hyundai i20 Asta 2009 Buy in Kathmandu Nepal,"NRs 17,50,000"
Hyundai i20 Asta 2009 Buy in Kathmandu Nepal,"NRs 17,50,000"
Hyundai i10 Magna 2012 Buy in Kathmandu Nepal,"NRs 17,50,000"
Maruti Suzuki Alto K10 VXi  2012 Buy in Kathmandu Nepal,"NRs 12,75,000"
Maruti Suzuki Alto Lx with A/C 2010 Buy in Kathmandu Nepal,"NRs 10,00,000"
Volkswagen Vento 1.6 Comfortline 2012 Buy in Kathmandu Nepal,"NRs 24,50,000"
Mahindra Scorpio 2013 Buy in Kathmandu Nepal,"NRs 27,50,000/-"
Volkswagen Polo 1.6 Highline 2013 Buy in Kathmandu Nepal,"NRs 26,00,000"
Tata Indica V2 DLE Diesel 2010 Buy in Kathmandu Nepal,"NRs 8,00,000"
Hyundai Santro 2002 Buy in Kathmandu Nepal,"NRs 7,25,000"
Mazda 3 V-Grade 2010 Buy in Kathmandu Nepal,"NRs 33,00,000"
Maruti Suzuki Alto K10 VXi  2013 Buy in Kathmandu Nepal,"NRs 13,50,000"
Hyundai i10 Magna 2010 Buy in Kathmandu Nepal,"NRs 15,25,000"
Hyundai i10 Magna 2010 Buy in Kathmandu Nepal,"NRs 15,75,000"
Tata Indica Xeta 2009 Buy in Kathmandu Nepal,"NRs 8,75,000"
Hyundai i10 Magna 2009 Buy in Kathmandu Nepal,"NRs 14,00,000"
Perodua Myvi 2010 Buy in Kathmandu Nepal,"NRs 11,50,000"
Swift VXI 2009 Buy in Kathmandu Nepal,"NRs 15,00,000"
Toyota Echo 2000 Buy in Kathmandu Nepal,"NRs 10,50,000"
Nissan TIIDA 2007 Buy in Kathmandu Nepal.,"NRs 20,00,000"
Maruti Suzuki Alto Lx 800 2011 Buy in Kathmandu Nepal.,"NRs 10,75,000"
Hyundai i10 Magna 2010 Buy in Kathmandu Nepal,"NRs 15,75,000"
Suzuki Swift Vxi 2008 Buy in Kathmandu Nepal,"NRs 14,25,000"
Maruti Suzuki Omni Van 2012 Buy in Kathmandu Nepal,"NRs 10,25,000"
Suzuki Vitara 1998 Buy in Kathmandu Nepal,"NRs 15,50,000"
Suzuki Swift Vxi 2008 Buy in Kathmandu Nepal,"NRs 14,50,000"
Maruti Suzuki Omni Van 2011 Buy in Kathmandu Nepal,"NRs 9,75,000"
Tata Indica DLS Diesel 2002 Buy in Kathmandu Nepal,"NRs 4,75,000"
Chevrolet Aveo LS 2010 Buy in Kathmandu Nepal,"NRs 16,00,000"
Chevrolet Aveo LT 2009 Buy in Kathmandu Nepal,"NRs 15,50,000"
Skoda Fabia 2009 Buy in Kathmandu Nepal,"NRs 14,25,000"
Skoda Laura 2011 Buy in Kathmandu Nepal,"NRs 42,00,000"
Ford Ranger Pickup 2010 Buy in Kathmandu Nepal.,"NRs 29,00,000"
Maruti Suzuki Alto K10 2013 Buy in Kathmandu Nepal,"NRs 13,75000"
Hyundai i20 Asta 2010 Buy in Kathmandu Nepal,"NRs 18,50,000"
Hyundai Santro 2003 Buy in Kathmandu Nepal,"NRs 8,25,000"
Daihatsu Terios SX 2007 Buy in Kathmandu Nepal,"NRs 33,00,000"
Chevrolet Spark LT 2010 Buy in Kathmandu Nepal,"NRs 12,00,000"
Daihatsu Terios 2000 Buy in Kathmandu Nepal,"NRs 18,00,000"
Maruti Suzuki A Star VXI 2010 is Sold,NRs 0
Maruti Suzuki Omni Van 2010 Buy in Kathmandu Nepal,"NRs 8,75,000"
Kia Picanto EX 2010 Buy in Kathmandu Nepal.,"NRs 12,00,000/-"
Nissan Xtrail 2006 Buy in Kathmandu Nepal.,"NRs 38,00,000/-"
Daihatsu Terios 2007 is SOLD,NRs 0
Daihatsu Sirion 1.3 2006 Buy in Kathmandu Nepal.l.,"NRs 12,50,000"
Nissan Navara LE 2010 Buy in Kathmandu Nepal,"NRs 37,00,000"
2011 Volkswagen Tiguan 2.0 TDI 4Motion Buy in Kathmandu Nepal.,"NRs 75,00,000"
Tata Indigo CS 2010 Buy in Kathmandu Nepal,"NRs 13,00,000"
Suzuki Alto 2009 Buy in Kathmandu Nepal,"NRs 9,50,000"
Daihatsu Terios SX 2007 Buy in Kathmandu Nepal,"NRs 33,00,000"
Hyundai Santro GLS 2008 Buy in Kathmandu Nepal,"NRs 12,25,000"
A Star VXi 2009 Buy in Kathmandu Nepal,"NRs 13,50,000"
Chevrolet Aveo Ls 2010 is SOLD,NRs 0
Hyundai Santro 2006 is SOLD,NRs 0
Kia Picanto Lx 2007 is SOLD,NRs 0
Subaru Forester 2006 Buy in Kathmandu Nepal,"NRs 31,00,000"
Swift Dzire VXi 2009 is SOLD,NRs 0
Tata Sumo Victa EX 2007 Buy in Kathmandu Nepal  *Price Reduced,"NRs 15,50,000"
Honda Jazz 2009 Buy in Kathmandu Nepal,"NRs 22,95,000"
Hyundai Santro Xing 2003 Buy in Kathmandu Nepal,"NRs 8,25,000"
Alto 2007 Buy in Kathmandu Nepal,"NRs 8,00,000"
Hyundai Santro 2006 Buy in Kathmandu Nepal,"NRs 10,75,000"
Toyota AE100 1992 Buy in Kathmandu Nepal,"NRs 7,50,000"
Maruti 800 2007 Buy in Kathmandu Nepal,"NRs 6,75,000"
Swift VXi 2007 Buy in Kathmandu Nepal,"NRs 14,50,000"
Alto 2004 Semi Option Buy in Kathamndu Nepal,"NRs 8,75,000"
Perodoua Kenari 2007 Buy in kathmandu Nepal,"NRs 8,75,000"
Hyundai i20 Magna is SOLD,NRs 0
Suzuki Ignis 2004 is SOLD,NRs 0
Swift Dzire VXi 2009 Buy in Kathmandu Nepal,"NRs 17,50,000"
A Star VXi 2009 Buy in Kathmandu Nepal,"NRs 14,50,000"
Mazda 1998 Buy in Kathmandu Nepal,"NRs 10,00,000"
Swift VXi 2007 is SOLD,NRs 0
Opel Swing 2002 is SOLD,NRs 0
Zotye 2010 Buy in Kathmandu Nepal,"NRs 15,50,000"
Hyundai i20 Asta 2010 is SOLD,NRs 0
Maruti Gypsy 1998 is SOLD,NRs 0
Toyota Tercel 1988 Buy in Kathmandu Nepal,"NRs 3,50,000"
Maruti Alto 2004 is SOLD,NRs 0
Maruti Suzuki Zen 2004 is SOLD,NRs 0
Maruti Suzuki Wagon R 2000 is SOLD,NRs 0
Perodoua Kelisa 2006 Buy in Kathmandu Nepal,"NRs 6,50,000"
Toyota AEE 101 1992 Buy in Kathmandu Nepal,"NRs 7,90,000"
Scorpio pick up 2008 is SOLD,NRs 0
Hyundai Santro 2006 is SOLD,NRs 0
TOYOTA LX 2003  is SOLD,NRs 0
Nissan fe 1997 buy in Kathmandu Nepal,"NRs 10,00,000"
DAIHATSU TERIOS 2007 is SOLD,NRs 0
Hyundai Matrix 2005 is SOLD,NRs 0
Kia Picanto 2005 is SOLD,"NRs 10,50,000"
Hyundai Santro 2007 is SOLD,"NRs 12,50,000"
Hyundai Santro 2005 is SOLD,"NRs 11,50,000"
Maruti Omni Van 2009 is SOLD,"NRs 8,60,000"
Kia Picanto Ex 2006 is SOLD,"NRs 11,20,000"
Kia Rio 2003 is SOLD,"NRs 7,70,000"
Daihatsu Sirion 2008 is SOLD,"NRs 14,600,000"
Tata Indica Turbo 2007 Buy in Kathmandu Nepal is SOLD,"NRs 8,50,000"
Daihatsu Terios 2008 is SOLD,"NRs 33,30,000"
Nissan Super Saloon 2004 is SOLD,"NRs 19,50,000"
Hyundai i10 Magna is SOLD,"NRs 15,00,000"
Toyota Hilux 1996 is SOLD,"NRs 19,00,000"
Maruti Suzuki Zen 2004 Buy in Kathmandu Nepal,"NRs 7,50,000"
Hyundai Tucson 2006 Buy in Kathandu Nepal is SOLD,"NRs 27,00,000"
Toyota Land Cruiser LJ79 Buy in Kathmandu Nepal SOLD,"NRs 27,50,000"
Mitsubishi Pajero V44 1991 Buy in Kathandu Nepal SOLD,"NRs 19,50,000"
Maruti 800 2004 Buy in Kathmandu Nepal,"NRs 6,00,000"
Dihatsu Terios 1998 is SOLD,"NRs 18,50,000"
Toyota Lx 2003is SOLD,"NRs 20,00,000"
Hyundai i10 Magna 2010 Buy in Kathmandu Nepal is SOLD,"NRs 16,00,000"
Land Rover Defender 2002 Buy in Kathmandu Nepal,"NRs 32,00,000"
Suzuki Swift VXi 2008 buy in Kathmandu Nepal is SOLD,"NRs 15,25,000"
Toyota RAV 4 2010 buy in Kathmandu Nepal.SOLD,"NRs 75,00,000"
Toyota RAV 4 2001 buy in Kathmandu Nepal is SOLD,"NRs 29,00,000"
Hyundai Santro Zip Plus 2003 is SOLD,"NRs 8,25,000"
Suzuki A Star buy in Kathmandu Nepal is SOLD,"NRs 14,30,000"
Kia Sorento 2003 Buy In Kathmandu Nepal,"NRs 33,00,000"
Huyndai Getz 2007 buy in Kathmandu Nepal is SOLD,"NRs 15,00,000"
Kia Sumato 2001 Buy In Kathmandu Nepal SOLD,"NRs 8,50,000"
ZOTYE 2010 Buy In Kathmandu Nepal is SOLD,"NRs 15,00,000"
Swift 2009vxi buy in kathmandu nepal SOLD,"NRs 16,80,000"
Tata indica 2006 Buy In Kathmandu Nepal SOLD,"NRs 8,00,000"
Maruti Van 2007 Buy in Kathmandu Nepal SOLD,"NRs 8,50,000"
Maruti WagonR 2001 is SOLD,"NRs 7,50,000"
Hyundai Tucson2009 buy in Kathmandu Nepal is SOLD,"NRs 32,50,000"
Toyota Prado 1997 Buy In Kathmandu Nepal,"NRs 43,00,000"
Nissan Navara 2009 is SOLD,"NRs 34,00,000"
Maruti Car 1998 Buy in Kathmandu Nepal is SOLD,"NRs 4,00,000"
Land  Rover 2004 is SOLD,"NRs 34,00,000"
Huyndai Santro 2009 GL is SOLD,"NRs 12,80,000"
Hyundai I20 2010  SOLD,"NRs 20,75,000"
